\relax 
\providecommand\hyper@newdestlabel[2]{}
\@writefile{toc}{\contentsline {chapter}{\numberline {2}CERN and Education}{5}{chapter.2}}
\@writefile{lof}{\addvspace {10\p@ }}
\@writefile{lot}{\addvspace {10\p@ }}
\newlabel{c:cernedu}{{2}{5}{CERN and Education}{chapter.2}{}}
\@writefile{toc}{\contentsline {section}{\numberline {2.1}About CERN}{5}{section.2.1}}
\newlabel{s:about_cern}{{2.1}{5}{About CERN}{section.2.1}{}}
\@writefile{toc}{\contentsline {section}{\numberline {2.2}Education at CERN}{6}{section.2.2}}
\newlabel{s:education_at_cern}{{2.2}{6}{Education at CERN}{section.2.2}{}}
\@writefile{toc}{\contentsline {subsection}{\numberline {2.2.1}Teacher Programme}{6}{subsection.2.2.1}}
\@writefile{toc}{\contentsline {subsection}{\numberline {2.2.2}Guided Tours}{7}{subsection.2.2.2}}
\@writefile{toc}{\contentsline {subsection}{\numberline {2.2.3}Visit Points}{7}{subsection.2.2.3}}
\@writefile{toc}{\contentsline {subsection}{\numberline {2.2.4}Exhibitions}{7}{subsection.2.2.4}}
\@writefile{toc}{\contentsline {section}{\numberline {2.3}Combining Education with Interactive Applications}{7}{section.2.3}}
\newlabel{sec:medialab}{{2.3}{7}{Combining Education with Interactive Applications}{section.2.3}{}}
\@writefile{toc}{\contentsline {subsection}{\numberline {2.3.1}Proton Football}{8}{subsection.2.3.1}}
\@writefile{toc}{\contentsline {subsection}{\numberline {2.3.2}Higgnite}{8}{subsection.2.3.2}}
\@setckpt{chapter/cernedu}{
\setcounter{page}{9}
\setcounter{equation}{0}
\setcounter{enumi}{0}
\setcounter{enumii}{0}
\setcounter{enumiii}{0}
\setcounter{enumiv}{0}
\setcounter{footnote}{6}
\setcounter{mpfootnote}{0}
\setcounter{part}{0}
\setcounter{chapter}{2}
\setcounter{section}{3}
\setcounter{subsection}{2}
\setcounter{subsubsection}{0}
\setcounter{paragraph}{0}
\setcounter{subparagraph}{0}
\setcounter{figure}{0}
\setcounter{table}{0}
\setcounter{btxromaniannumeral}{0}
\setcounter{float@type}{32}
\setcounter{ContinuedFloat}{0}
\setcounter{parentequation}{0}
\setcounter{AM@survey}{0}
\setcounter{algorithm}{0}
\setcounter{ALG@line}{0}
\setcounter{ALG@rem}{0}
\setcounter{ALG@blocknr}{9}
\setcounter{ALG@tmpcounter}{0}
\setcounter{program}{0}
\setcounter{lstnumber}{1}
\setcounter{Item}{0}
\setcounter{Hfootnote}{8}
\setcounter{bookmark@seq@number}{17}
\setcounter{definition}{0}
\setcounter{problem}{0}
\setcounter{section@level}{2}
\setcounter{lstlisting}{0}
}
