\relax 
\providecommand\hyper@newdestlabel[2]{}
\@writefile{toc}{\contentsline {chapter}{\numberline {5}Comparison between Unity and UDK}{33}{chapter.5}}
\@writefile{lof}{\addvspace {10\p@ }}
\@writefile{lot}{\addvspace {10\p@ }}
\newlabel{c:comparison}{{5}{33}{Comparison between Unity and UDK}{chapter.5}{}}
\@writefile{toc}{\contentsline {section}{\numberline {5.1}Method of Comparison}{33}{section.5.1}}
\@writefile{toc}{\contentsline {section}{\numberline {5.2}Comparison Aspects}{34}{section.5.2}}
\@writefile{toc}{\contentsline {subsection}{\numberline {5.2.1}Development}{34}{subsection.5.2.1}}
\citation{mediendidaktik_kerres}
\newlabel{graphic:comparison_aspects}{{5.1}{35}{}{figure.caption.25}{}}
\@writefile{toc}{\contentsline {subsubsection}{Weighting of Environment}{35}{section*.26}}
\@writefile{toc}{\contentsline {subsubsection}{Weighting of Scripting}{35}{section*.27}}
\citation{gespielte_ernst_des_lebens}
\@writefile{toc}{\contentsline {subsubsection}{Weighting of Debugging}{36}{section*.28}}
\@writefile{toc}{\contentsline {subsection}{\numberline {5.2.2}Functionalities}{36}{subsection.5.2.2}}
\@writefile{toc}{\contentsline {subsubsection}{Weighting of Graphics}{36}{section*.29}}
\@writefile{toc}{\contentsline {subsubsection}{Weighting of Physics}{36}{section*.30}}
\@writefile{toc}{\contentsline {subsubsection}{Weighting of Audio}{37}{section*.31}}
\@writefile{toc}{\contentsline {subsubsection}{Weighting of Artificial Intelligence}{37}{section*.32}}
\@writefile{toc}{\contentsline {subsection}{\numberline {5.2.3}Compatibility}{37}{subsection.5.2.3}}
\@writefile{toc}{\contentsline {subsubsection}{Weighting of Assets}{37}{section*.33}}
\citation{gespielte_ernst_des_lebens}
\@writefile{toc}{\contentsline {subsubsection}{Weighting of Platforms}{38}{section*.34}}
\@writefile{toc}{\contentsline {subsubsection}{Weighting of Input}{38}{section*.35}}
\@writefile{toc}{\contentsline {subsection}{\numberline {5.2.4}GUI Creation}{38}{subsection.5.2.4}}
\@writefile{toc}{\contentsline {subsubsection}{Weighting of Control Elements}{38}{section*.36}}
\@writefile{toc}{\contentsline {subsubsection}{Weighting of Information Display}{39}{section*.37}}
\@writefile{toc}{\contentsline {subsubsection}{Weighting of Tools}{39}{section*.38}}
\@writefile{toc}{\contentsline {subsection}{\numberline {5.2.5}Support}{39}{subsection.5.2.5}}
\@writefile{toc}{\contentsline {subsubsection}{Weighting of Documentation}{40}{section*.39}}
\@writefile{toc}{\contentsline {subsubsection}{Weighting of Community}{40}{section*.40}}
\@writefile{toc}{\contentsline {section}{\numberline {5.3}Development}{40}{section.5.3}}
\newlabel{s:comparisonaspect_development}{{5.3}{40}{Development}{section.5.3}{}}
\@writefile{toc}{\contentsline {subsection}{\numberline {5.3.1}Environment}{40}{subsection.5.3.1}}
\@writefile{toc}{\contentsline {subsubsection}{Unity}{40}{section*.41}}
\newlabel{graphic:unity_ide}{{5.2}{41}{}{figure.caption.42}{}}
\@writefile{toc}{\contentsline {subsubsection}{UDK}{42}{section*.43}}
\@writefile{toc}{\contentsline {subsection}{\numberline {5.3.2}Scripting}{42}{subsection.5.3.2}}
\@writefile{toc}{\contentsline {subsubsection}{Unity}{42}{section*.45}}
\newlabel{graphic:udk_ide}{{5.3}{43}{}{figure.caption.44}{}}
\@writefile{toc}{\contentsline {subsubsection}{UDK}{43}{section*.46}}
\@writefile{toc}{\contentsline {subsection}{\numberline {5.3.3}Debugging}{44}{subsection.5.3.3}}
\@writefile{toc}{\contentsline {subsubsection}{Unity}{44}{section*.47}}
\@writefile{toc}{\contentsline {subsubsection}{UDK}{44}{section*.48}}
\@writefile{toc}{\contentsline {section}{\numberline {5.4}Functionalities}{44}{section.5.4}}
\newlabel{s:comparisonaspect_functionalities}{{5.4}{44}{Functionalities}{section.5.4}{}}
\@writefile{toc}{\contentsline {subsection}{\numberline {5.4.1}Graphics}{45}{subsection.5.4.1}}
\@writefile{toc}{\contentsline {subsubsection}{Unity}{45}{section*.49}}
\@writefile{toc}{\contentsline {subsubsection}{UDK}{45}{section*.50}}
\@writefile{toc}{\contentsline {subsection}{\numberline {5.4.2}Physics}{45}{subsection.5.4.2}}
\@writefile{toc}{\contentsline {subsubsection}{Unity}{45}{section*.51}}
\@writefile{toc}{\contentsline {subsubsection}{UDK}{46}{section*.52}}
\@writefile{toc}{\contentsline {subsection}{\numberline {5.4.3}Audio}{46}{subsection.5.4.3}}
\@writefile{toc}{\contentsline {subsubsection}{Unity}{46}{section*.53}}
\@writefile{toc}{\contentsline {subsubsection}{UDK}{46}{section*.54}}
\@writefile{toc}{\contentsline {subsection}{\numberline {5.4.4}Artificial Intelligence}{47}{subsection.5.4.4}}
\@writefile{toc}{\contentsline {subsubsection}{Unity}{47}{section*.55}}
\@writefile{toc}{\contentsline {subsubsection}{UDK}{47}{section*.56}}
\@writefile{toc}{\contentsline {section}{\numberline {5.5}Compatibility}{47}{section.5.5}}
\newlabel{s:comparisonaspect_compatibility}{{5.5}{47}{Compatibility}{section.5.5}{}}
\@writefile{toc}{\contentsline {subsection}{\numberline {5.5.1}Assets}{47}{subsection.5.5.1}}
\@writefile{toc}{\contentsline {subsubsection}{Unity}{47}{section*.57}}
\@writefile{toc}{\contentsline {subsubsection}{UDK}{48}{section*.58}}
\@writefile{toc}{\contentsline {subsection}{\numberline {5.5.2}Platforms}{48}{subsection.5.5.2}}
\@writefile{toc}{\contentsline {subsubsection}{Unity}{48}{section*.59}}
\@writefile{toc}{\contentsline {subsubsection}{UDK}{49}{section*.60}}
\@writefile{toc}{\contentsline {subsection}{\numberline {5.5.3}Input}{49}{subsection.5.5.3}}
\@writefile{toc}{\contentsline {subsubsection}{Unity}{49}{section*.61}}
\@writefile{toc}{\contentsline {subsubsection}{UDK}{50}{section*.62}}
\@writefile{toc}{\contentsline {section}{\numberline {5.6}GUI Creation}{50}{section.5.6}}
\newlabel{s:comparisonaspect_guicreation}{{5.6}{50}{GUI Creation}{section.5.6}{}}
\@writefile{toc}{\contentsline {subsection}{\numberline {5.6.1}Control Elements}{51}{subsection.5.6.1}}
\@writefile{toc}{\contentsline {subsubsection}{Unity}{51}{section*.63}}
\@writefile{toc}{\contentsline {subsubsection}{UDK}{51}{section*.64}}
\@writefile{toc}{\contentsline {subsection}{\numberline {5.6.2}Information Display}{52}{subsection.5.6.2}}
\@writefile{toc}{\contentsline {subsubsection}{Unity}{52}{section*.65}}
\@writefile{toc}{\contentsline {subsubsection}{UDK}{52}{section*.66}}
\@writefile{toc}{\contentsline {subsection}{\numberline {5.6.3}Tools}{52}{subsection.5.6.3}}
\@writefile{toc}{\contentsline {subsubsection}{Unity}{53}{section*.67}}
\@writefile{toc}{\contentsline {subsubsection}{UDK}{53}{section*.68}}
\@writefile{toc}{\contentsline {section}{\numberline {5.7}Support}{53}{section.5.7}}
\newlabel{s:comparisonaspect_support}{{5.7}{53}{Support}{section.5.7}{}}
\@writefile{toc}{\contentsline {subsection}{\numberline {5.7.1}Documentation}{53}{subsection.5.7.1}}
\@writefile{toc}{\contentsline {subsubsection}{Unity}{53}{section*.69}}
\@writefile{toc}{\contentsline {subsubsection}{UDK}{54}{section*.70}}
\@writefile{toc}{\contentsline {subsection}{\numberline {5.7.2}Community}{54}{subsection.5.7.2}}
\@writefile{toc}{\contentsline {subsubsection}{Unity}{54}{section*.71}}
\@writefile{toc}{\contentsline {subsubsection}{UDK}{55}{section*.72}}
\@writefile{toc}{\contentsline {section}{\numberline {5.8}Comparison Results}{55}{section.5.8}}
\newlabel{table:comp_results}{{5.1}{55}{}{table.5.1}{}}
\newlabel{graphic:comparison_result}{{5.4}{56}{}{figure.caption.73}{}}
\@setckpt{chapter/comparison}{
\setcounter{page}{57}
\setcounter{equation}{0}
\setcounter{enumi}{0}
\setcounter{enumii}{0}
\setcounter{enumiii}{0}
\setcounter{enumiv}{0}
\setcounter{footnote}{9}
\setcounter{mpfootnote}{0}
\setcounter{part}{0}
\setcounter{chapter}{5}
\setcounter{section}{8}
\setcounter{subsection}{0}
\setcounter{subsubsection}{0}
\setcounter{paragraph}{0}
\setcounter{subparagraph}{0}
\setcounter{figure}{4}
\setcounter{table}{1}
\setcounter{btxromaniannumeral}{0}
\setcounter{float@type}{32}
\setcounter{ContinuedFloat}{0}
\setcounter{parentequation}{0}
\setcounter{AM@survey}{0}
\setcounter{algorithm}{0}
\setcounter{ALG@line}{0}
\setcounter{ALG@rem}{0}
\setcounter{ALG@blocknr}{9}
\setcounter{ALG@tmpcounter}{0}
\setcounter{program}{0}
\setcounter{lstnumber}{16}
\setcounter{Item}{0}
\setcounter{Hfootnote}{40}
\setcounter{bookmark@seq@number}{75}
\setcounter{definition}{0}
\setcounter{problem}{0}
\setcounter{section@level}{1}
\setcounter{lstlisting}{0}
}
