\relax 
\providecommand\hyper@newdestlabel[2]{}
\citation{purdue_gamedevelopment}
\@writefile{toc}{\contentsline {chapter}{\numberline {6}Development of a Serious Game with Unity}{57}{chapter.6}}
\@writefile{lof}{\addvspace {10\p@ }}
\@writefile{lot}{\addvspace {10\p@ }}
\newlabel{c:development}{{6}{57}{Development of a Serious Game with Unity}{chapter.6}{}}
\@writefile{toc}{\contentsline {section}{\numberline {6.1}Development Process}{57}{section.6.1}}
\@writefile{toc}{\contentsline {subsection}{\numberline {6.1.1}Roles}{57}{subsection.6.1.1}}
\citation{purdue_gamedevelopment}
\citation{purdue_gamedevelopment}
\newlabel{graphic:development_roles}{{6.1}{58}{}{figure.caption.74}{}}
\citation{purdue_gamedevelopment}
\citation{purdue_gamedevelopment}
\@writefile{toc}{\contentsline {subsection}{\numberline {6.1.2}Process Model}{59}{subsection.6.1.2}}
\newlabel{subs:dev_processmodel}{{6.1.2}{59}{Process Model}{subsection.6.1.2}{}}
\newlabel{graphic:development_process}{{6.2}{59}{}{figure.caption.75}{}}
\@writefile{toc}{\contentsline {section}{\numberline {6.2}Concept Development of Freeq}{60}{section.6.2}}
\@writefile{toc}{\contentsline {subsection}{\numberline {6.2.1}Description of the Idea}{60}{subsection.6.2.1}}
\@writefile{toc}{\contentsline {subsection}{\numberline {6.2.2}Goals}{61}{subsection.6.2.2}}
\@writefile{toc}{\contentsline {subsection}{\numberline {6.2.3}Genre, Audience and Platforms}{61}{subsection.6.2.3}}
\@writefile{toc}{\contentsline {section}{\numberline {6.3}Design of Freeq}{61}{section.6.3}}
\@writefile{toc}{\contentsline {subsection}{\numberline {6.3.1}Requirements}{61}{subsection.6.3.1}}
\newlabel{subs:dev_requirements}{{6.3.1}{61}{Requirements}{subsection.6.3.1}{}}
\@writefile{toc}{\contentsline {subsection}{\numberline {6.3.2}Gameplay and Game Flow}{62}{subsection.6.3.2}}
\newlabel{subs:dev_gameplay_and_gameflow}{{6.3.2}{62}{Gameplay and Game Flow}{subsection.6.3.2}{}}
\@writefile{toc}{\contentsline {section}{\numberline {6.4}Implementation of Freeq}{63}{section.6.4}}
\@writefile{toc}{\contentsline {subsection}{\numberline {6.4.1}Modelling}{63}{subsection.6.4.1}}
\@writefile{toc}{\contentsline {subsubsection}{Model}{64}{section*.76}}
\newlabel{graphic:dev_model}{{6.3}{64}{}{figure.caption.77}{}}
\@writefile{toc}{\contentsline {subsubsection}{View}{65}{section*.78}}
\newlabel{graphic:dev_view}{{6.4}{65}{}{figure.caption.79}{}}
\@writefile{toc}{\contentsline {subsubsection}{Controller}{66}{section*.80}}
\newlabel{graphic:dev_controller}{{6.5}{66}{}{figure.caption.81}{}}
\@writefile{toc}{\contentsline {subsection}{\numberline {6.4.2}Realisation}{67}{subsection.6.4.2}}
\newlabel{subs:dev_realistaion}{{6.4.2}{67}{Realisation}{subsection.6.4.2}{}}
\newlabel{graphic:dev_mvc}{{6.6}{67}{}{figure.caption.82}{}}
\newlabel{graphic:dev_interplay}{{6.7}{69}{}{figure.caption.83}{}}
\@writefile{toc}{\contentsline {subsection}{\numberline {6.4.3}Prototype}{71}{subsection.6.4.3}}
\@writefile{lof}{\contentsline {figure}{\numberline {6.8}{\ignorespaces Freeq's Main Menu (Left) and Level Selection Menu (Right)\relax }}{71}{figure.caption.84}}
\newlabel{graphics:freeq_main_and_level}{{6.8}{71}{Freeq's Main Menu (Left) and Level Selection Menu (Right)\relax }{figure.caption.84}{}}
\@writefile{lof}{\contentsline {figure}{\numberline {6.9}{\ignorespaces Freeq's Gameplay Screen (Left: Freeq Minimized | Right: Freeq Maximized)\relax }}{72}{figure.caption.85}}
\newlabel{graphics:freeq_gameplay_and_inventory}{{6.9}{72}{Freeq's Gameplay Screen (Left: Freeq Minimized | Right: Freeq Maximized)\relax }{figure.caption.85}{}}
\@writefile{lof}{\contentsline {figure}{\numberline {6.10}{\ignorespaces Freeq's Pause Menu (Left) and Settings Screen (Right)\relax }}{73}{figure.caption.86}}
\newlabel{graphics:freeq_pause_and_settings}{{6.10}{73}{Freeq's Pause Menu (Left) and Settings Screen (Right)\relax }{figure.caption.86}{}}
\@writefile{lof}{\contentsline {figure}{\numberline {6.11}{\ignorespaces Freeq's Particle Information (Left) and Level Complete Interface (Right)\relax }}{74}{figure.caption.87}}
\newlabel{graphics:freeq_particleinfo_and_levelcomplete}{{6.11}{74}{Freeq's Particle Information (Left) and Level Complete Interface (Right)\relax }{figure.caption.87}{}}
\@writefile{toc}{\contentsline {section}{\numberline {6.5}Testing of Freeq}{75}{section.6.5}}
\@writefile{toc}{\contentsline {section}{\numberline {6.6}Deployment of Freeq}{75}{section.6.6}}
\@writefile{toc}{\contentsline {section}{\numberline {6.7}Evaluation and Conclusion}{76}{section.6.7}}
\@setckpt{chapter/development}{
\setcounter{page}{80}
\setcounter{equation}{0}
\setcounter{enumi}{0}
\setcounter{enumii}{0}
\setcounter{enumiii}{0}
\setcounter{enumiv}{0}
\setcounter{footnote}{3}
\setcounter{mpfootnote}{0}
\setcounter{part}{0}
\setcounter{chapter}{6}
\setcounter{section}{7}
\setcounter{subsection}{0}
\setcounter{subsubsection}{0}
\setcounter{paragraph}{0}
\setcounter{subparagraph}{0}
\setcounter{figure}{11}
\setcounter{table}{0}
\setcounter{btxromaniannumeral}{0}
\setcounter{float@type}{32}
\setcounter{ContinuedFloat}{0}
\setcounter{parentequation}{0}
\setcounter{AM@survey}{0}
\setcounter{algorithm}{0}
\setcounter{ALG@line}{0}
\setcounter{ALG@rem}{0}
\setcounter{ALG@blocknr}{9}
\setcounter{ALG@tmpcounter}{0}
\setcounter{program}{0}
\setcounter{lstnumber}{16}
\setcounter{Item}{0}
\setcounter{Hfootnote}{43}
\setcounter{bookmark@seq@number}{93}
\setcounter{definition}{0}
\setcounter{problem}{0}
\setcounter{section@level}{1}
\setcounter{lstlisting}{0}
}
