\relax 
\providecommand\hyper@newdestlabel[2]{}
\@writefile{toc}{\contentsline {chapter}{\numberline {4}Game Engines}{21}{chapter.4}}
\@writefile{lof}{\addvspace {10\p@ }}
\@writefile{lot}{\addvspace {10\p@ }}
\newlabel{c:gameengines}{{4}{21}{Game Engines}{chapter.4}{}}
\@writefile{toc}{\contentsline {section}{\numberline {4.1}What is a Game Engine}{21}{section.4.1}}
\newlabel{section:what_is_a_game_engine}{{4.1}{21}{What is a Game Engine}{section.4.1}{}}
\@writefile{toc}{\contentsline {subsection}{\numberline {4.1.1}Components}{22}{subsection.4.1.1}}
\newlabel{graphic:engine_components}{{4.1}{22}{}{figure.caption.14}{}}
\@writefile{toc}{\contentsline {subsubsection}{Graphics Engine}{22}{section*.15}}
\@writefile{toc}{\contentsline {subsubsection}{AI Engine}{23}{section*.16}}
\@writefile{toc}{\contentsline {subsubsection}{Physics Engine}{23}{section*.17}}
\@writefile{toc}{\contentsline {subsubsection}{Sound Engine}{24}{section*.18}}
\@writefile{toc}{\contentsline {subsubsection}{User Control System}{24}{section*.19}}
\@writefile{toc}{\contentsline {subsection}{\numberline {4.1.2}Types}{24}{subsection.4.1.2}}
\@writefile{toc}{\contentsline {subsubsection}{Low-Level Abstraction}{25}{section*.20}}
\@writefile{toc}{\contentsline {subsubsection}{Mid-Level Abstraction}{25}{section*.21}}
\@writefile{toc}{\contentsline {subsubsection}{High-Level Abstraction}{26}{section*.22}}
\@writefile{toc}{\contentsline {section}{\numberline {4.2}Variety}{26}{section.4.2}}
\newlabel{section:ge_variety}{{4.2}{26}{Variety}{section.4.2}{}}
\@writefile{toc}{\contentsline {subsection}{\numberline {4.2.1}Overview}{26}{subsection.4.2.1}}
\newlabel{table:ge_overview}{{4.1}{27}{}{table.4.1}{}}
\@writefile{toc}{\contentsline {subsection}{\numberline {4.2.2}CryENGINE 3}{28}{subsection.4.2.2}}
\@writefile{toc}{\contentsline {subsection}{\numberline {4.2.3}Frostbite 3}{28}{subsection.4.2.3}}
\@writefile{toc}{\contentsline {subsection}{\numberline {4.2.4}Source Engine}{29}{subsection.4.2.4}}
\@writefile{toc}{\contentsline {subsection}{\numberline {4.2.5}Unity 4}{29}{subsection.4.2.5}}
\newlabel{subs:ge_unity4}{{4.2.5}{29}{Unity 4}{subsection.4.2.5}{}}
\@writefile{toc}{\contentsline {subsection}{\numberline {4.2.6}Unreal Engine 3 / Unreal Development Kit}{30}{subsection.4.2.6}}
\newlabel{subs:ge_udk}{{4.2.6}{30}{Unreal Engine 3 / Unreal Development Kit}{subsection.4.2.6}{}}
\@writefile{toc}{\contentsline {section}{\numberline {4.3}Narrowing Down the Choice}{30}{section.4.3}}
\@writefile{toc}{\contentsline {subsection}{\numberline {4.3.1}Requirements}{30}{subsection.4.3.1}}
\newlabel{subs:ge_narrowing_requirements}{{4.3.1}{30}{Requirements}{subsection.4.3.1}{}}
\citation{ambient_insight_research}
\@writefile{toc}{\contentsline {subsubsection}{Affordability}{31}{section*.23}}
\@writefile{toc}{\contentsline {subsubsection}{Support for Mobile Platforms}{31}{section*.24}}
\@writefile{toc}{\contentsline {subsection}{\numberline {4.3.2}Conclusion}{31}{subsection.4.3.2}}
\@setckpt{chapter/gameengines}{
\setcounter{page}{33}
\setcounter{equation}{0}
\setcounter{enumi}{0}
\setcounter{enumii}{0}
\setcounter{enumiii}{0}
\setcounter{enumiv}{0}
\setcounter{footnote}{18}
\setcounter{mpfootnote}{0}
\setcounter{part}{0}
\setcounter{chapter}{4}
\setcounter{section}{3}
\setcounter{subsection}{2}
\setcounter{subsubsection}{0}
\setcounter{paragraph}{0}
\setcounter{subparagraph}{0}
\setcounter{figure}{1}
\setcounter{table}{1}
\setcounter{btxromaniannumeral}{0}
\setcounter{float@type}{32}
\setcounter{ContinuedFloat}{0}
\setcounter{parentequation}{0}
\setcounter{AM@survey}{0}
\setcounter{algorithm}{0}
\setcounter{ALG@line}{0}
\setcounter{ALG@rem}{0}
\setcounter{ALG@blocknr}{9}
\setcounter{ALG@tmpcounter}{0}
\setcounter{program}{0}
\setcounter{lstnumber}{1}
\setcounter{Item}{0}
\setcounter{Hfootnote}{31}
\setcounter{bookmark@seq@number}{46}
\setcounter{definition}{0}
\setcounter{problem}{0}
\setcounter{section@level}{2}
\setcounter{lstlisting}{0}
}
