\relax 
\providecommand\hyper@newdestlabel[2]{}
\@writefile{toc}{\contentsline {chapter}{\numberline {1}Introduction}{1}{chapter.1}}
\@writefile{lof}{\addvspace {10\p@ }}
\@writefile{lot}{\addvspace {10\p@ }}
\newlabel{c:introduction}{{1}{1}{Introduction}{chapter.1}{}}
\@writefile{toc}{\contentsline {section}{\numberline {1.1}Motivation}{1}{section.1.1}}
\@writefile{toc}{\contentsline {section}{\numberline {1.2}Goals}{2}{section.1.2}}
\newlabel{s:intro_goals}{{1.2}{2}{Goals}{section.1.2}{}}
\@writefile{toc}{\contentsline {section}{\numberline {1.3}Structure of the Paper}{3}{section.1.3}}
\@writefile{toc}{\contentsline {section}{\numberline {1.4}Allocation of Project Report and Bachelor's Thesis}{4}{section.1.4}}
\@writefile{toc}{\contentsline {subsection}{\numberline {1.4.1}Project Report}{4}{subsection.1.4.1}}
\@writefile{toc}{\contentsline {subsection}{\numberline {1.4.2}Bachelor's Thesis}{4}{subsection.1.4.2}}
\@setckpt{chapter/introduction}{
\setcounter{page}{5}
\setcounter{equation}{0}
\setcounter{enumi}{0}
\setcounter{enumii}{0}
\setcounter{enumiii}{0}
\setcounter{enumiv}{0}
\setcounter{footnote}{1}
\setcounter{mpfootnote}{0}
\setcounter{part}{0}
\setcounter{chapter}{1}
\setcounter{section}{4}
\setcounter{subsection}{2}
\setcounter{subsubsection}{0}
\setcounter{paragraph}{0}
\setcounter{subparagraph}{0}
\setcounter{figure}{0}
\setcounter{table}{0}
\setcounter{btxromaniannumeral}{0}
\setcounter{float@type}{32}
\setcounter{ContinuedFloat}{0}
\setcounter{parentequation}{0}
\setcounter{AM@survey}{0}
\setcounter{algorithm}{0}
\setcounter{ALG@line}{0}
\setcounter{ALG@rem}{0}
\setcounter{ALG@blocknr}{9}
\setcounter{ALG@tmpcounter}{0}
\setcounter{program}{0}
\setcounter{lstnumber}{1}
\setcounter{Item}{0}
\setcounter{Hfootnote}{2}
\setcounter{bookmark@seq@number}{7}
\setcounter{definition}{0}
\setcounter{problem}{0}
\setcounter{section@level}{2}
\setcounter{lstlisting}{0}
}
