\relax 
\providecommand\hyper@newdestlabel[2]{}
\citation{Michael:2005:SGG:1051239}
\@writefile{toc}{\contentsline {chapter}{\numberline {3}Serious Games}{9}{chapter.3}}
\@writefile{lof}{\addvspace {10\p@ }}
\@writefile{lot}{\addvspace {10\p@ }}
\newlabel{c:seriousgames}{{3}{9}{Serious Games}{chapter.3}{}}
\@writefile{toc}{\contentsline {section}{\numberline {3.1}What is a Serious Game}{9}{section.3.1}}
\@writefile{toc}{\contentsline {subsection}{\numberline {3.1.1}Definition}{9}{subsection.3.1.1}}
\newlabel{subs:seriousgame_definition}{{3.1.1}{9}{Definition}{subsection.3.1.1}{}}
\citation{sg_landscape}
\citation{sawyer_gamebasedlearning}
\citation{sg_taxonomy}
\@writefile{toc}{\contentsline {subsection}{\numberline {3.1.2}Purposes and Classification}{10}{subsection.3.1.2}}
\citation{sg_taxonomy}
\citation{sg_taxonomy}
\citation{sg_taxonomy}
\citation{sg_taxonomy}
\@writefile{toc}{\contentsline {subsection}{\numberline {3.1.3}The most Common Type}{11}{subsection.3.1.3}}
\newlabel{subs:most_common_genre}{{3.1.3}{11}{The most Common Type}{subsection.3.1.3}{}}
\@writefile{lof}{\contentsline {figure}{\numberline {3.1}{\ignorespaces Serious Games Taxonomy by Ben Sawyer and Peter Smith (Source: \cite  {sg_taxonomy})\relax }}{12}{figure.caption.5}}
\providecommand*\caption@xref[2]{\@setref\relax\@undefined{#1}}
\newlabel{graphic:taxonomy}{{3.1}{12}{Serious Games Taxonomy by Ben Sawyer and Peter Smith (Source: \cite {sg_taxonomy})\relax }{figure.caption.5}{}}
\@writefile{lof}{\contentsline {figure}{\numberline {3.2}{\ignorespaces Distribution of serious games by market according to the database of serious.gameclassification.com (Jan. 2014)\relax }}{13}{figure.caption.6}}
\newlabel{graphic:marketchart_sgc}{{3.2}{13}{Distribution of serious games by market according to the database of serious.gameclassification.com (Jan. 2014)\relax }{figure.caption.6}{}}
\@writefile{lof}{\contentsline {figure}{\numberline {3.3}{\ignorespaces Distribution of serious games by purpose according to the database of serious.gameclassification.com (Jan. 2014)\relax }}{13}{figure.caption.7}}
\newlabel{graphic:purposechart_sgc}{{3.3}{13}{Distribution of serious games by purpose according to the database of serious.gameclassification.com (Jan. 2014)\relax }{figure.caption.7}{}}
\citation{sg_taxonomy}
\citation{sg_taxonomy}
\citation{educoncepts}
\@writefile{lof}{\contentsline {figure}{\numberline {3.4}{\ignorespaces Projected taxonomy of serious games by Ben Sawyer and Peter Smith (2008, Source: \cite  {sg_taxonomy})\relax }}{14}{figure.caption.8}}
\newlabel{graphic:projected_taxonomy}{{3.4}{14}{Projected taxonomy of serious games by Ben Sawyer and Peter Smith (2008, Source: \cite {sg_taxonomy})\relax }{figure.caption.8}{}}
\@writefile{toc}{\contentsline {section}{\numberline {3.2}Benefits of Usage}{14}{section.3.2}}
\@writefile{toc}{\contentsline {subsection}{\numberline {3.2.1}Serious Games as Educational Concept}{14}{subsection.3.2.1}}
\citation{educoncepts}
\citation{educoncepts}
\citation{ESA_EF11}
\citation{ESA_EF13}
\citation{ISFE_Consumer_Study}
\citation{pip_teens_videogames}
\citation{ESA_EF11}
\citation{ESA_EF13}
\@writefile{lof}{\contentsline {figure}{\numberline {3.5}{\ignorespaces The Position of Serious Games Among Other Educational Concepts (Source: \cite  {educoncepts})\relax }}{15}{figure.caption.9}}
\newlabel{graphic:sg_educoncepts}{{3.5}{15}{The Position of Serious Games Among Other Educational Concepts (Source: \cite {educoncepts})\relax }{figure.caption.9}{}}
\citation{conf/sgda/2012}
\citation{gespielte_ernst_des_lebens}
\@writefile{toc}{\contentsline {subsection}{\numberline {3.2.2}Games as Part of our Society}{16}{subsection.3.2.2}}
\newlabel{subs:sg_part_of_society}{{3.2.2}{16}{Games as Part of our Society}{subsection.3.2.2}{}}
\@writefile{toc}{\contentsline {subsection}{\numberline {3.2.3}Positive Impact}{16}{subsection.3.2.3}}
\citation{mediendidaktik_kerres}
\@writefile{toc}{\contentsline {subsection}{\numberline {3.2.4}Safety and Cost}{17}{subsection.3.2.4}}
\@writefile{toc}{\contentsline {subsection}{\numberline {3.2.5}Privacy and Feedback}{17}{subsection.3.2.5}}
\@writefile{toc}{\contentsline {subsection}{\numberline {3.2.6}Didactic}{17}{subsection.3.2.6}}
\@writefile{toc}{\contentsline {subsubsection}{Support of other learning concepts and new qualities of learning}{18}{section*.10}}
\@writefile{toc}{\contentsline {subsubsection}{A different organisation of learning}{18}{section*.11}}
\@writefile{toc}{\contentsline {subsubsection}{Shortened learning periods}{18}{section*.12}}
\@writefile{toc}{\contentsline {section}{\numberline {3.3}History}{18}{section.3.3}}
\@writefile{toc}{\contentsline {subsection}{\numberline {3.3.1}Pre-Electronic Era}{18}{subsection.3.3.1}}
\@writefile{toc}{\contentsline {subsection}{\numberline {3.3.2}Computer Era}{19}{subsection.3.3.2}}
\newlabel{subs:sg_computer_era}{{3.3.2}{19}{Computer Era}{subsection.3.3.2}{}}
\@writefile{lof}{\contentsline {figure}{\numberline {3.6}{\ignorespaces Growth of serious games since 1980, according to the database of serious.gameclassification.com (Jan. 2014)\relax }}{20}{figure.caption.13}}
\newlabel{graphic:timegraph_sg}{{3.6}{20}{Growth of serious games since 1980, according to the database of serious.gameclassification.com (Jan. 2014)\relax }{figure.caption.13}{}}
\@setckpt{chapter/seriousgames}{
\setcounter{page}{21}
\setcounter{equation}{0}
\setcounter{enumi}{0}
\setcounter{enumii}{0}
\setcounter{enumiii}{0}
\setcounter{enumiv}{0}
\setcounter{footnote}{5}
\setcounter{mpfootnote}{0}
\setcounter{part}{0}
\setcounter{chapter}{3}
\setcounter{section}{3}
\setcounter{subsection}{2}
\setcounter{subsubsection}{0}
\setcounter{paragraph}{0}
\setcounter{subparagraph}{0}
\setcounter{figure}{6}
\setcounter{table}{0}
\setcounter{btxromaniannumeral}{0}
\setcounter{float@type}{32}
\setcounter{ContinuedFloat}{0}
\setcounter{parentequation}{0}
\setcounter{AM@survey}{0}
\setcounter{algorithm}{0}
\setcounter{ALG@line}{0}
\setcounter{ALG@rem}{0}
\setcounter{ALG@blocknr}{9}
\setcounter{ALG@tmpcounter}{0}
\setcounter{program}{0}
\setcounter{lstnumber}{1}
\setcounter{Item}{0}
\setcounter{Hfootnote}{13}
\setcounter{bookmark@seq@number}{32}
\setcounter{definition}{0}
\setcounter{problem}{0}
\setcounter{section@level}{2}
\setcounter{lstlisting}{0}
}
