\relax 
\providecommand\hyper@newdestlabel[2]{}
\@writefile{toc}{\contentsline {chapter}{\numberline {A}Scribbles of Freeq's Design Process}{85}{appendix.A}}
\@writefile{lof}{\addvspace {10\p@ }}
\@writefile{lot}{\addvspace {10\p@ }}
\newlabel{appendix:freeq}{{A}{85}{Scribbles of Freeq's Design Process}{appendix.A}{}}
\newlabel{graphic:appendix_a_activity_chart}{{A.1}{85}{}{figure.caption.88}{}}
\newlabel{graphic:appendix_a_usecase_chart}{{A.2}{86}{}{figure.caption.89}{}}
\newlabel{graphic:appendix_a_menu_screens}{{A.3}{87}{}{figure.caption.90}{}}
\newlabel{graphic:appendix_a_gameplay_screen}{{A.4}{88}{}{figure.caption.91}{}}
\@setckpt{appendix/A/info}{
\setcounter{page}{89}
\setcounter{equation}{0}
\setcounter{enumi}{0}
\setcounter{enumii}{0}
\setcounter{enumiii}{0}
\setcounter{enumiv}{0}
\setcounter{footnote}{0}
\setcounter{mpfootnote}{0}
\setcounter{part}{0}
\setcounter{chapter}{1}
\setcounter{section}{0}
\setcounter{subsection}{0}
\setcounter{subsubsection}{0}
\setcounter{paragraph}{0}
\setcounter{subparagraph}{0}
\setcounter{figure}{4}
\setcounter{table}{0}
\setcounter{btxromaniannumeral}{0}
\setcounter{float@type}{32}
\setcounter{ContinuedFloat}{0}
\setcounter{parentequation}{0}
\setcounter{AM@survey}{0}
\setcounter{algorithm}{0}
\setcounter{ALG@line}{0}
\setcounter{ALG@rem}{0}
\setcounter{ALG@blocknr}{9}
\setcounter{ALG@tmpcounter}{0}
\setcounter{program}{0}
\setcounter{lstnumber}{16}
\setcounter{Item}{0}
\setcounter{Hfootnote}{43}
\setcounter{bookmark@seq@number}{97}
\setcounter{definition}{0}
\setcounter{problem}{0}
\setcounter{section@level}{1}
\setcounter{lstlisting}{0}
}
