\relax 
\providecommand\hyper@newdestlabel[2]{}
\@setckpt{tools/messbox}{
\setcounter{page}{110}
\setcounter{equation}{0}
\setcounter{enumi}{0}
\setcounter{enumii}{0}
\setcounter{enumiii}{0}
\setcounter{enumiv}{0}
\setcounter{footnote}{0}
\setcounter{mpfootnote}{0}
\setcounter{part}{0}
\setcounter{chapter}{3}
\setcounter{section}{0}
\setcounter{subsection}{0}
\setcounter{subsubsection}{0}
\setcounter{paragraph}{0}
\setcounter{subparagraph}{0}
\setcounter{figure}{0}
\setcounter{table}{0}
\setcounter{btxromaniannumeral}{0}
\setcounter{float@type}{32}
\setcounter{ContinuedFloat}{0}
\setcounter{parentequation}{0}
\setcounter{AM@survey}{0}
\setcounter{algorithm}{0}
\setcounter{ALG@line}{0}
\setcounter{ALG@rem}{0}
\setcounter{ALG@blocknr}{9}
\setcounter{ALG@tmpcounter}{0}
\setcounter{program}{0}
\setcounter{lstnumber}{16}
\setcounter{Item}{0}
\setcounter{Hfootnote}{43}
\setcounter{bookmark@seq@number}{106}
\setcounter{definition}{0}
\setcounter{problem}{0}
\setcounter{section@level}{1}
\setcounter{lstlisting}{0}
}
