This is BibTeX, Version 0.99dThe top-level auxiliary file: thesis.aux
A level-1 auxiliary file: pretext/abstract.aux
A level-1 auxiliary file: chapter/introduction.aux
A level-1 auxiliary file: chapter/cernedu.aux
A level-1 auxiliary file: chapter/seriousgames.aux
A level-1 auxiliary file: chapter/gameengines.aux
A level-1 auxiliary file: chapter/comparison.aux
A level-1 auxiliary file: chapter/development.aux
A level-1 auxiliary file: chapter/conclusions.aux
A level-1 auxiliary file: appendix/A/info.aux
A level-1 auxiliary file: appendix/B/info.aux
A level-1 auxiliary file: appendix/C/info.aux
The style file: babalpha.bst
Database file #1: literature/literature.bib
Warning--empty journal in purdue_gamedevelopment
Warning--empty journal in mediendidaktik_kerres
(There were 2 warnings)
