\relax 
\providecommand\hyper@newdestlabel[2]{}
\@writefile{toc}{\contentsline {chapter}{\numberline {B}Impress - Interactive Media Presentation Software}{89}{appendix.B}}
\@writefile{lof}{\addvspace {10\p@ }}
\@writefile{lot}{\addvspace {10\p@ }}
\newlabel{appendix:impress}{{B}{89}{Impress - Interactive Media Presentation Software}{appendix.B}{}}
\@writefile{toc}{\contentsline {section}{\numberline {B.1}What is Impress}{89}{section.B.1}}
\@writefile{toc}{\contentsline {subsection}{\numberline {B.1.1}Launcher}{89}{subsection.B.1.1}}
\newlabel{graphic:appendix_b_launcher_presentations}{{B.1}{90}{}{figure.caption.92}{}}
\@writefile{toc}{\contentsline {subsection}{\numberline {B.1.2}Player}{90}{subsection.B.1.2}}
\newlabel{graphic:appendix_b_launcher_open_and_settings}{{B.2}{91}{}{figure.caption.93}{}}
\newlabel{graphic:appendix_b_layouts}{{B.3}{92}{}{figure.caption.94}{}}
\newlabel{graphic:appendix_b_media}{{B.4}{92}{}{figure.caption.95}{}}
\@writefile{toc}{\contentsline {subsection}{\numberline {B.1.3}Builder}{93}{subsection.B.1.3}}
\@writefile{toc}{\contentsline {subsubsection}{Parts A. to G.}{94}{section*.96}}
\newlabel{graphic:appendix_b_builder_elementprefs}{{B.5}{94}{}{figure.caption.97}{}}
\@writefile{toc}{\contentsline {subsubsection}{Parts H. to K.}{95}{section*.98}}
\newlabel{graphic:appendix_b_builder_contentlists}{{B.6}{95}{}{figure.caption.99}{}}
\newlabel{graphic:appendix_b_add_media}{{B.7}{96}{}{figure.caption.100}{}}
\@writefile{toc}{\contentsline {subsubsection}{Parts L. to N.}{96}{section*.101}}
\newlabel{graphic:appendix_b_builder_events}{{B.8}{97}{}{figure.caption.102}{}}
\@writefile{toc}{\contentsline {subsubsection}{Parts O. and P.}{97}{section*.103}}
\newlabel{graphic:appendix_b_create_event}{{B.9}{98}{}{figure.caption.104}{}}
\newlabel{graphic:appendix_b_add_events}{{B.10}{98}{}{figure.caption.105}{}}
\@writefile{toc}{\contentsline {subsubsection}{Part Q}{99}{section*.106}}
\newlabel{graphic:appendix_b_layout_settings}{{B.11}{99}{}{figure.caption.107}{}}
\@writefile{toc}{\contentsline {subsubsection}{Part R}{99}{section*.108}}
\newlabel{graphic:appendix_b_pres_prefs}{{B.12}{100}{}{figure.caption.109}{}}
\@writefile{toc}{\contentsline {section}{\numberline {B.2}Personal Contribution}{100}{section.B.2}}
\@writefile{toc}{\contentsline {section}{\numberline {B.3}Current State and Future Work}{102}{section.B.3}}
\@setckpt{appendix/B/info}{
\setcounter{page}{103}
\setcounter{equation}{0}
\setcounter{enumi}{0}
\setcounter{enumii}{0}
\setcounter{enumiii}{0}
\setcounter{enumiv}{0}
\setcounter{footnote}{0}
\setcounter{mpfootnote}{0}
\setcounter{part}{0}
\setcounter{chapter}{2}
\setcounter{section}{3}
\setcounter{subsection}{0}
\setcounter{subsubsection}{0}
\setcounter{paragraph}{0}
\setcounter{subparagraph}{0}
\setcounter{figure}{12}
\setcounter{table}{0}
\setcounter{btxromaniannumeral}{0}
\setcounter{float@type}{32}
\setcounter{ContinuedFloat}{0}
\setcounter{parentequation}{0}
\setcounter{AM@survey}{0}
\setcounter{algorithm}{0}
\setcounter{ALG@line}{0}
\setcounter{ALG@rem}{0}
\setcounter{ALG@blocknr}{9}
\setcounter{ALG@tmpcounter}{0}
\setcounter{program}{0}
\setcounter{lstnumber}{16}
\setcounter{Item}{0}
\setcounter{Hfootnote}{43}
\setcounter{bookmark@seq@number}{104}
\setcounter{definition}{0}
\setcounter{problem}{0}
\setcounter{section@level}{1}
\setcounter{lstlisting}{0}
}
